<?xml version="1.0" encoding="UTF-8" standalone="no"?>
<!-- Generator: Adobe Illustrator 13.0.2, SVG Export Plug-In . SVG Version: 6.00 Build 14948)  -->

<svg
   xmlns:dc="http://purl.org/dc/elements/1.1/"
   xmlns:cc="http://creativecommons.org/ns#"
   xmlns:rdf="http://www.w3.org/1999/02/22-rdf-syntax-ns#"
   xmlns:svg="http://www.w3.org/2000/svg"
   xmlns="http://www.w3.org/2000/svg"
   xmlns:sodipodi="http://sodipodi.sourceforge.net/DTD/sodipodi-0.dtd"
   xmlns:inkscape="http://www.inkscape.org/namespaces/inkscape"
   id="Layer_1"
   xml:space="preserve"
   height="181.44px"
   viewBox="0 0 176.486 181.437"
   width="176.49px"
   version="1.1"
   y="0px"
   x="0px"
   enable-background="new 0 0 176.486 181.437"
   sodipodi:docname="xmpplogo.svg"
   inkscape:version="0.92.2 2405546, 2018-03-11"><metadata
   id="metadata41"><rdf:RDF><cc:Work
       rdf:about=""><dc:format>image/svg+xml</dc:format><dc:type
         rdf:resource="http://purl.org/dc/dcmitype/StillImage" /><dc:title></dc:title></cc:Work></rdf:RDF></metadata><defs
   id="defs39" /><sodipodi:namedview
   pagecolor="#ffffff"
   bordercolor="#666666"
   borderopacity="1"
   objecttolerance="10"
   gridtolerance="10"
   guidetolerance="10"
   inkscape:pageopacity="0"
   inkscape:pageshadow="2"
   inkscape:window-width="1366"
   inkscape:window-height="711"
   id="namedview37"
   showgrid="false"
   inkscape:pagecheckerboard="true"
   inkscape:zoom="0.91973764"
   inkscape:cx="140.60348"
   inkscape:cy="203.39979"
   inkscape:window-x="0"
   inkscape:window-y="0"
   inkscape:window-maximized="1"
   inkscape:current-layer="Layer_1" />
<linearGradient
   id="SVGID_1_"
   y2=".00048828"
   gradientUnits="userSpaceOnUse"
   x2="-1807.2"
   gradientTransform="translate(1916)"
   y1="125.86"
   x1="-1807.2">
	<stop
   stop-color="#1b3967"
   offset=".011"
   id="stop2" />
	<stop
   stop-color="#13b5ea"
   offset=".467"
   id="stop4" />
	<stop
   stop-color="#002b5c"
   offset=".9945"
   id="stop6" />
</linearGradient>
<path
   style="fill:#ffffff;stroke-width:1.00001657"
   d="M 172.90039 0.00390625 L 147.0957 10.007812 L 120.23633 17.955078 L 120.23242 17.960938 C 120.30942 19.273959 120.35352 20.592947 120.35352 21.917969 C 120.35352 60.469607 89.653137 112.41611 44.525391 123.7793 L 44.525391 125.41797 C 44.569782 125.4151 44.613825 125.41114 44.658203 125.4082 L 44.658203 125.85547 C 104.6162 120.34538 171.39037 59.054883 172.90039 0.00390625 z "
   transform="matrix(0.99998345,0,0,0.99998345,-5.4248178e-4,0)"
   id="path9" />

<linearGradient
   id="SVGID_2_"
   y2="1.279e-13"
   gradientUnits="userSpaceOnUse"
   x2="-1073.2"
   gradientTransform="matrix(-1 0 0 1 -1008.2 0)"
   y1="126.85"
   x1="-1073.2">
	<stop
   stop-color="#1b3967"
   offset=".011"
   id="stop13" />
	<stop
   stop-color="#13b5ea"
   offset=".467"
   id="stop15" />
	<stop
   stop-color="#002b5c"
   offset=".9945"
   id="stop17" />
</linearGradient>

<path
   style="fill:#ffffff;stroke-width:1.00001657"
   d="M 0.00390625 0.001953125 C 1.2672609 49.406648 49.499487 101.06335 100.33398 119.85742 C 105.03978 121.69626 109.88534 123.19243 114.85156 124.29297 C 119.95749 125.51928 125.04732 126.3905 130.07617 126.85352 L 130.07617 126.36719 C 130.19817 126.37345 130.3193 126.38486 130.44141 126.39062 L 130.44141 124.75195 C 85.312659 113.38877 54.613281 61.44031 54.613281 22.888672 C 54.613281 21.56165 54.656421 20.244662 54.732422 18.931641 L 54.730469 18.929688 L 29.810547 11.556641 L 0.00390625 0.001953125 z "
   transform="matrix(0.99998345,0,0,0.99998345,-5.4248178e-4,0)"
   id="path22" />


	<path
   d="m14.576 166.71l-13.388-14.65h11.643l9.127 10.268 9.129-10.268h11.643l-13.387 14.646 14.401 14.728h-12.09l-9.697-10.67-9.693 10.67h-12.092l14.404-14.73z"
   id="path28"
   style="fill:#ffffff" />
	<path
   d="m47.096 152.06h13.836l10.183 18.905 10.183-18.905h13.832v29.374h-8.762v-21.096h-0.08l-11.807 21.096h-6.733l-11.807-21.096h-0.082v21.096h-8.764v-29.37z"
   id="path30"
   style="fill:#ffffff" />
	<path
   d="m101.25 152.06h24.546c8.559 0 10.628 4.302 10.628 10.063v2.516c0 4.381-1.908 9.41-8.275 9.41h-17.894v7.385h-9.005v-29.38zm9 14.69h13.997c2.109 0 2.924-1.377 2.924-3.123v-1.135c0-1.99-0.976-3.127-3.694-3.127h-13.227v7.38z"
   id="path32"
   style="fill:#ffffff" />
	<path
   d="m141.31 152.06h24.546c8.561 0 10.63 4.302 10.63 10.063v2.516c0 4.381-1.907 9.41-8.275 9.41h-17.893v7.385h-9.008v-29.38zm9.01 14.69h13.996c2.11 0 2.922-1.377 2.922-3.123v-1.135c0-1.99-0.974-3.127-3.693-3.127h-13.225v7.38z"
   id="path34"
   style="fill:#ffffff" />
</svg>